<?xml version="1.0" encoding="UTF-8" standalone="no"?>
<svg
   xmlns:dc="http://purl.org/dc/elements/1.1/"
   xmlns:cc="http://creativecommons.org/ns#"
   xmlns:rdf="http://www.w3.org/1999/02/22-rdf-syntax-ns#"
   xmlns:svg="http://www.w3.org/2000/svg"
   xmlns="http://www.w3.org/2000/svg"
   height="149.21088"
   width="151.85484"
   xml:space="preserve"
   viewBox="0 0 151.85485 149.21087"
   y="0px"
   x="0px"
   id="Слой_1"
   version="1.1"><metadata
   id="metadata4658"><rdf:RDF><cc:Work
       rdf:about=""><dc:format>image/svg+xml</dc:format><dc:type
         rdf:resource="http://purl.org/dc/dcmitype/StillImage" /><dc:title></dc:title></cc:Work></rdf:RDF></metadata><defs
   id="defs4656" />
<style
   id="style4518"
   type="text/css">
	.st0{fill:#FFFFFF;}
	.st1{fill:#0071B8;}
	.st2{fill:#00ADEC;}
	.st3{fill:#E44143;}
</style>
<path
   style="fill:#ffffff"
   id="path4520"
   d="M 134.22793,135.63198"
   class="st0" />
<path
   style="fill:#ffffff"
   id="path4522"
   d="M 133.62793,100.63198"
   class="st0" />
<g
   id="g4562">
	<polyline
   style="fill:#0071b8"
   id="polyline4556"
   points="82.7,106.1 85,109.4 87.4,112.6 89.7,115.8 92,119.1 94.4,122.3 96.7,125.5 99.1,128.8 101.4,132    99.5,132 97.6,132 95.7,132.1 93.8,132.1 91.9,132.1 90,132.1 88.1,132.1 86.2,132.1 86.2,134.4 86.2,136.7 86.2,139 86.2,141.2    86.2,143.5 86.2,145.8 86.2,148.1 86.2,150.3 91,149.9 95.7,149.5 100.5,149.1 105.3,148.7 110,148.3 114.8,147.9 119.6,147.4    124.3,147 126.2,142.6 128.1,138.1 130,133.7 131.9,129.2 133.7,124.8 135.6,120.3 137.5,115.9 139.4,111.4 137.2,110.8 135,110.1    132.9,109.4 130.7,108.7 128.5,108 126.3,107.3 124.2,106.6 122,105.9 121.4,107.7 120.8,109.5 120.2,111.3 119.7,113.1    119.1,114.9 118.5,116.7 117.9,118.5 117.4,120.3 115,117.1 112.7,113.9 110.4,110.7 108.1,107.5 105.7,104.3 103.4,101.1    101.1,98 98.8,94.8  "
   class="st1" />
	<path
   style="fill:#0071b8"
   id="path4558"
   d="m 86.2,132.1 c 4.1,0.4 13.7,3.6 22.2,7.1 8.5,3.6 16,7.2 16,7.7 0,0.5 -7.9,2 -16.4,2.6 -8.5,0.6 -17.7,0.4 -21.8,0.7"
   class="st1" />
	<path
   style="fill:#0071b8"
   id="path4560"
   d="m 139.4,111.4 c -1.1,4 -3.6,12.4 -7,20.3 -3.4,7.9 -7.6,15.4 -8.1,15.3 -0.5,-0.1 -1.3,-8.3 -1.8,-17.6 -0.5,-9.3 -0.8,-19.5 -0.5,-23.6"
   class="st1" />
</g>
<g
   id="g4570">
	<polyline
   style="fill:#0071b8"
   id="polyline4564"
   points="102.2,85.2 106,84 109.7,82.8 113.5,81.6 117.2,80.4 121,79.2 124.8,78 128.5,76.8 132.3,75.5    131.7,77.4 131.1,79.2 130.6,81 130,82.8 129.4,84.6 128.8,86.4 128.3,88.2 127.7,90 129.9,90.7 132,91.5 134.2,92.2 136.4,92.9    138.5,93.6 140.7,94.3 142.9,95 145,95.7 146.1,91 147.2,86.3 148.3,81.7 149.3,77 150.4,72.4 151.5,67.7 152.6,63 153.7,58.4    150,55.2 146.4,52 142.7,48.9 139.1,45.7 135.4,42.6 131.8,39.4 128.1,36.2 124.5,33.1 123.1,34.9 121.8,36.8 120.5,38.6    119.1,40.5 117.8,42.3 116.5,44.2 115.1,46 113.8,47.9 115.3,49 116.9,50.1 118.4,51.2 119.9,52.3 121.5,53.4 123,54.5 124.5,55.6    126.1,56.7 122.4,57.9 118.8,59.1 115.2,60.3 111.6,61.5 108,62.7 104.3,63.8 100.7,65 97.1,66.2  "
   class="st1" />
	<path
   style="fill:#0071b8"
   id="path4566"
   d="m 127.7,90 c 1.6,-3.8 7.6,-12 13.7,-19 6.1,-7 11.8,-13 12.3,-12.8 0.5,0.2 -0.5,8.1 -2.6,16.4 -2.1,8.3 -5.1,17 -6,21"
   class="st1" />
	<path
   style="fill:#0071b8"
   id="path4568"
   d="m 124.5,33.1 c 3.4,2.2 10.7,7.3 17.2,12.9 6.5,5.7 12.3,12 12,12.5 -0.3,0.5 -8.3,-1.4 -17.3,-3.7 -9,-2.3 -18.8,-5.2 -22.6,-6.9"
   class="st1" />
</g>
<g
   id="g4578">
	<polyline
   style="fill:#0071b8"
   id="polyline4572"
   points="87.5,58.8 87.5,54.9 87.6,50.9 87.6,47 87.6,43 87.6,39.1 87.6,35.1 87.6,31.2 87.6,27.2 89.2,28.3    90.7,29.4 92.3,30.5 93.8,31.6 95.4,32.8 96.9,33.9 98.5,35 100,36.1 101.3,34.2 102.7,32.4 104,30.5 105.4,28.7 106.7,26.9    108,25 109.4,23.2 110.7,21.3 106.6,18.9 102.5,16.4 98.4,13.9 94.3,11.5 90.2,9 86.1,6.5 82,4.1 77.9,1.6 73.8,4.1 69.6,6.6    65.5,9.1 61.4,11.6 57.2,14.1 53.1,16.6 48.9,19 44.8,21.5 46.2,23.4 47.5,25.2 48.9,27.1 50.2,28.9 51.6,30.7 52.9,32.6    54.3,34.4 55.6,36.3 57.1,35.1 58.7,34 60.2,32.9 61.7,31.8 63.3,30.7 64.8,29.6 66.3,28.4 67.8,27.3 67.8,31.2 67.8,35.1    67.8,39.1 67.8,43 67.9,46.9 67.9,50.8 67.9,54.7 67.9,58.6  "
   class="st1" />
	<path
   style="fill:#0071b8"
   id="path4574"
   d="M 100,36.1 C 96.9,33.4 91,25.1 86.2,17.3 81.4,9.5 77.5,2 77.8,1.6 c 0.3,-0.4 7.5,3 14.8,7.5 7.3,4.5 14.6,10.1 18.1,12.2"
   class="st1" />
	<path
   style="fill:#0071b8"
   id="path4576"
   d="M 44.8,21.5 C 48,19 55,13.6 62.4,9.2 69.8,4.8 77.6,1.2 78,1.6 78.4,2 74.1,9.1 69.1,16.9 64.1,24.7 58.3,33.2 55.6,36.3"
   class="st1" />
</g>
<g
   id="g4586">
	<polyline
   style="fill:#0071b8"
   id="polyline4580"
   points="57.9,66.1 54.3,64.9 50.8,63.8 47.2,62.6 43.7,61.4 40.1,60.3 36.6,59.1 33,57.9 29.5,56.8 31,55.6    32.5,54.5 34.1,53.4 35.6,52.2 37.1,51.1 38.7,50 40.2,48.9 41.7,47.7 40.4,45.9 39,44 37.7,42.2 36.4,40.4 35,38.5 33.7,36.7    32.3,34.8 31,33 27.4,36.1 23.8,39.3 20.2,42.4 16.6,45.5 12.9,48.7 9.3,51.8 5.7,55 2.1,58.1 3.2,62.8 4.3,67.5 5.4,72.2    6.5,76.9 7.6,81.6 8.7,86.3 9.7,91 10.8,95.7 13,95 15.2,94.3 17.3,93.6 19.5,92.9 21.7,92.1 23.8,91.4 26,90.7 28.2,90 27.6,88.2    27,86.4 26.4,84.6 25.8,82.8 25.2,81 24.6,79.2 24,77.4 23.5,75.6 27.1,76.8 30.8,78 34.4,79.2 38.1,80.4 41.7,81.5 45.4,82.7    49,83.9 52.7,85.1  "
   class="st1" />
	<path
   style="fill:#0071b8"
   id="path4582"
   d="M 41.7,47.7 C 38.2,49.8 28.5,52.9 19.5,55 10.5,57.1 2.4,58.6 2,58.2 1.6,57.8 7.2,52 13.8,46.4 20.4,40.8 27.9,35.7 31,33"
   class="st1" />
	<path
   style="fill:#0071b8"
   id="path4584"
   d="M 10.8,95.7 C 9.3,91.9 6.4,83.5 4.5,75.1 2.6,66.7 1.6,58.2 2.1,58 2.6,57.8 8,64 13.9,71.2 19.8,78.4 26.1,86.5 28.2,90"
   class="st1" />
</g>
<g
   id="g4594">
	<polyline
   style="fill:#0071b8"
   id="polyline4588"
   points="56.5,95.6 54.2,98.8 51.9,101.9 49.6,105.1 47.3,108.2 45,111.4 42.7,114.5 40.4,117.7 38.1,120.8    37.5,119 36.9,117.2 36.3,115.4 35.7,113.6 35.1,111.8 34.4,110 33.8,108.2 33.2,106.4 31.1,107.1 28.9,107.8 26.7,108.5    24.6,109.2 22.4,109.9 20.3,110.6 18.1,111.3 15.9,112 17.8,116.4 19.7,120.8 21.5,125.2 23.4,129.6 25.3,134 27.1,138.4 29,142.9    30.9,147.3 35.7,147.7 40.5,148.1 45.3,148.5 50.1,148.9 54.9,149.3 59.7,149.7 64.5,150.2 69.4,150.6 69.3,148.3 69.3,146    69.3,143.7 69.3,141.4 69.3,139.2 69.3,136.9 69.3,134.6 69.3,132.3 67.4,132.3 65.5,132.3 63.6,132.3 61.7,132.3 59.8,132.3    57.9,132.3 56,132.4 54.1,132.4 56.5,129.1 58.8,125.9 61.2,122.6 63.6,119.4 65.9,116.1 68.3,112.9 70.6,109.6 73,106.4  "
   class="st1" />
	<path
   style="fill:#0071b8"
   id="path4590"
   d="m 33.2,106.4 c 0.9,4 0.9,14.2 0.1,23.4 -0.8,9.2 -1.9,17.4 -2.4,17.6 -0.5,0.2 -4.3,-6.8 -7.6,-14.8 -3.3,-8 -5.9,-16.7 -7.5,-20.5"
   class="st1" />
	<path
   style="fill:#0071b8"
   id="path4592"
   d="m 69.4,150.6 c -4.1,0.2 -12.9,0.4 -21.5,-0.4 -8.6,-0.8 -17,-2.5 -17.1,-3 -0.1,-0.5 7.5,-3.8 16.2,-7.2 8.6,-3.4 18.3,-6.8 22.3,-7.7"
   class="st1" />
</g>
<g
   id="g4599">
	<g
   id="g4597">
		<path
   style="fill:#ffffff"
   d="M 57,67.4 C 49.1,78.7 51.8,94.3 63.2,102.2 74.4,110.1 90,107.3 98,96 105.9,84.7 103.1,69.1 91.8,61.2 87.4,58.1 82.4,56.7 77.5,56.7 69.6,56.7 61.8,60.4 57,67.4"
   class="st0"
   id="SVGID_1_" />
	</g>
</g>
<g
   id="g4651">
	<g
   id="g4603">
		<path
   style="fill:#e44143"
   id="path4601"
   d="m 91.9,89.5 c -0.2,0.6 -0.3,0.9 -0.9,1.7 -0.6,0.9 -1.4,1.8 -2.6,2.6 -1.2,0.8 -2.6,1.5 -4.4,2 -1.7,0.5 -3.8,0.8 -6,0.8 -5.2,0 -9.2,-1.4 -12.1,-4.1 -2.9,-2.7 -4.3,-6.4 -4.3,-11 0,-2.2 0.4,-4.2 1.1,-6.1 0.7,-1.9 1.7,-3.5 3.1,-4.8 1.4,-1.3 3,-2.4 5,-3.1 2,-0.7 4.2,-1.1 6.6,-1.1 3.2,0 5.9,0.6 8.1,1.8 2.3,1.2 4,2.8 5.1,4.7 1.1,1.9 1.7,3.9 1.7,5.9 0,1.9 -0.6,3.1 -1.7,3.6 -1.2,0.6 -2.8,0.8 -4.9,0.8 H 69.9 c 0,1.7 0.4,3.2 1.1,4.5 0.7,1.3 1.7,2.3 2.9,2.9 1.2,0.7 2.5,1 4,1 1,0 1.9,-0.1 2.7,-0.3 0.8,-0.2 1.6,-0.5 2.3,-1 0.8,-0.4 1.4,-0.9 2.1,-1.4 0.6,-0.5 0.4,-0.3 1.5,-1.2 M 69.9,79.2 h 14.7 c -0.2,-2.5 -0.9,-4.4 -2.2,-5.7 -1.3,-1.3 -3,-1.9 -5.1,-1.9 -2,0 -3.7,0.6 -5,1.9 -1.3,1.3 -2.1,3.2 -2.4,5.7 z"
   class="st3" />
	</g>
	<g
   id="g4649">
		<g
   id="g4625">
			<g
   id="g4613">
				<g
   id="g4607">
					<path
   style="fill:#e44143"
   id="path4605"
   d="m 89.6,90.5 c -0.5,0.8 -1.3,1.6 -2.3,2.3 -1,0.7 -2.4,1.4 -3.9,1.9 -1.6,0.5 -3.4,0.7 -5.5,0.7 -4.7,0 -8.3,-1.2 -11,-3.7 -2.6,-2.5 -3.9,-5.8 -3.9,-10 0,-2 0.3,-3.8 1,-5.5 0.6,-1.7 1.6,-3.1 2.8,-4.4 1.2,-1.2 2.7,-2.1 4.6,-2.8 1.8,-0.6 3.8,-1 6,-1 2.9,0 5.3,0.6 7.4,1.7 2,1.1 3.6,2.5 4.6,4.3 1,1.8 1.5,3.5 1.5,5.4 0,1.7 -0.5,2.8 -1.6,3.3 -1.1,0.5 -2.5,0.7 -4.4,0.7 H 70.5 c 0,1.5 0.4,2.9 1,4 0.7,1.2 1.5,2 2.6,2.6 1.1,0.6 2.3,0.9 3.6,0.9 0.9,0 1.7,-0.1 2.4,-0.3 0.7,-0.2 1.4,-0.5 2.1,-0.9 0.7,-0.4 1.3,-0.8 1.9,-1.3 M 70.5,79.6 h 13.3 c -0.2,-2.3 -0.9,-4 -2,-5.1 -1.2,-1.1 -2.7,-1.7 -4.6,-1.7 -1.8,0 -3.3,0.6 -4.5,1.7 -1.2,1.2 -2,2.9 -2.2,5.1 z"
   class="st3" />
				</g>
				<g
   id="g4611">
					<path
   style="fill:#e44143"
   id="path4609"
   d="m 90.7,89.2 c -0.1,0.2 -0.6,1.3 -0.7,1.5 -0.1,0.2 -1,0.4 -1.2,0.6 -0.2,0.2 -0.5,0.3 -0.8,0.5 -0.2,0.2 -0.4,-0.3 -0.7,-0.1 -0.3,0.2 -0.5,0.4 -0.8,0.5 -0.3,0.2 -0.6,0.3 -0.9,0.5 -0.3,0.2 -0.7,0.3 -1,0.4 -0.4,0.1 -0.7,0.3 -1.1,0.4 -0.4,0.1 -0.8,0.2 -1.2,0.3 -0.4,0.1 -0.9,0.2 -1.3,0.2 -0.4,0 -0.9,0.1 -1.4,0.1 -0.5,0 -1,0 -1.5,0 -1.2,0 -2.3,-0.1 -3.3,-0.2 -1,-0.2 -2,-0.4 -2.9,-0.7 C 71,92.9 70.1,92.5 69.4,92.1 68.6,91.6 67.9,91.1 67.2,90.5 66.5,89.9 66,89.2 65.5,88.5 65,87.8 64.6,87 64.3,86.2 64,85.4 63.7,84.5 63.6,83.6 c -0.2,-0.9 -0.2,-1.9 -0.2,-2.9 0,-0.5 0,-1 0.1,-1.4 0.1,-0.4 0.1,-0.9 0.2,-1.4 0.1,-0.5 0.2,-0.9 0.3,-1.3 0.1,-0.4 0.3,-0.9 0.4,-1.3 0.2,-0.4 0.3,-0.8 0.5,-1.2 0.2,-0.4 0.4,-0.8 0.6,-1.1 0.2,-0.4 0.5,-0.7 0.8,-1 0.3,-0.3 0.6,-0.6 0.9,-0.9 0.3,-0.3 0.6,-0.6 1,-0.8 0.3,-0.3 0.7,-0.5 1.1,-0.7 0.4,-0.2 0.8,-0.4 1.2,-0.6 0.4,-0.2 0.8,-0.4 1.3,-0.5 0.5,-0.2 0.9,-0.3 1.4,-0.4 0.5,-0.1 1,-0.2 1.5,-0.3 0.5,-0.1 1,-0.1 1.5,-0.2 0.5,-0.1 1.1,-0.1 1.6,-0.1 0.7,0 1.4,0 2.1,0.1 0.7,0.1 1.3,0.2 1.9,0.3 0.6,0.1 1.2,0.3 1.8,0.5 0.6,0.2 1.1,0.4 1.6,0.7 0.5,0.3 1,0.6 1.4,0.9 0.4,0.3 0.9,0.6 1.2,1 0.4,0.4 0.7,0.7 1.1,1.1 0.4,0.4 0.6,0.8 0.9,1.2 0.3,0.4 0.5,0.9 0.7,1.3 0.2,0.4 0.3,0.9 0.5,1.3 0.2,0.4 0.2,0.9 0.3,1.3 0.1,0.4 0.1,0.9 0.1,1.3 0,0.4 0,0.8 -0.1,1.1 -0.1,0.3 -0.2,0.6 -0.3,0.9 -0.1,0.3 -0.3,0.5 -0.5,0.7 -0.2,0.2 -0.4,0.4 -0.7,0.5 -0.3,0.1 -0.6,0.2 -0.9,0.3 -0.3,0.1 -0.7,0.2 -1,0.2 -0.4,0.1 -0.8,0.1 -1.2,0.1 -0.4,0 -0.9,0 -1.4,0 h -3.6 -3.6 -3.6 -3.6 c 0,0.4 0,0.7 0.1,1.1 0,0.4 0.1,0.7 0.2,1 0.1,0.3 0.2,0.6 0.3,1 0.1,0.3 0.3,0.6 0.4,0.9 0.2,0.3 0.3,0.6 0.5,0.8 0.2,0.3 0.4,0.5 0.6,0.7 0.2,0.2 0.4,0.4 0.7,0.6 0.2,0.2 0.5,0.3 0.8,0.5 0.3,0.1 0.5,0.3 0.8,0.4 0.3,0.1 0.6,0.2 0.9,0.3 0.3,0.1 0.6,0.1 0.9,0.2 0.3,0.1 0.6,0.1 1,0.1 0.2,0 0.4,0 0.6,0 0.2,0 0.4,0 0.6,-0.1 0.2,0 0.4,-0.1 0.6,-0.1 0.2,0 0.4,-0.1 0.6,-0.1 0.2,0 0.4,-0.1 0.5,-0.2 0.2,-0.1 0.4,-0.1 0.5,-0.2 0.1,-0.1 0.3,-0.2 0.5,-0.2 0.2,-0.1 0.3,-0.2 0.5,-0.3 0.2,-0.1 0.3,-0.2 0.5,-0.3 0.2,-0.1 0.3,-0.2 0.5,-0.3 0.2,-0.1 0.3,-0.2 0.5,-0.3 0.1,-0.1 0.3,-0.2 0.4,-0.3 0.1,-0.1 0.1,-0.1 0.3,-0.2 M 70.5,78.7 h 3.3 3.3 3.3 3.3 c 0,-0.6 -0.1,-1.1 -0.2,-1.6 C 83.4,76.6 83.3,76.2 83.1,75.7 82.9,75.3 82.7,74.9 82.5,74.5 82.3,74.1 82,73.8 81.7,73.6 81.4,73.3 81.1,73.1 80.8,72.9 80.5,72.7 80.1,72.5 79.7,72.4 79.3,72.3 78.9,72.2 78.5,72.1 78.1,72 77.6,72 77.1,72 c -0.5,0 -0.9,0 -1.3,0.1 -0.4,0.1 -0.8,0.2 -1.2,0.3 -0.4,0.1 -0.7,0.3 -1.1,0.5 -0.4,0.2 -0.6,0.5 -0.9,0.7 -0.3,0.3 -0.6,0.6 -0.8,1 -0.2,0.4 -0.4,0.7 -0.6,1.2 -0.2,0.4 -0.3,0.9 -0.4,1.4 -0.1,0.4 -0.2,0.9 -0.3,1.5 z"
   class="st3" />
				</g>
			</g>
			<g
   id="g4623">
				<g
   id="g4617">
					<path
   style="fill:#e44143"
   id="path4615"
   d="m 89.2,90.5 c -0.5,0.8 -1.3,1.6 -2.3,2.3 -1,0.7 -2.4,1.4 -3.9,1.9 -1.6,0.5 -3.4,0.7 -5.5,0.7 -4.7,0 -8.3,-1.2 -11,-3.7 -2.6,-2.5 -3.9,-5.8 -3.9,-10 0,-2 0.3,-3.8 1,-5.5 0.6,-1.7 1.6,-3.1 2.8,-4.4 1.2,-1.2 2.7,-2.1 4.6,-2.8 1.8,-0.6 3.8,-1 6,-1 2.9,0 5.3,0.6 7.4,1.7 2,1.1 3.6,2.5 4.6,4.3 1,1.8 1.5,3.5 1.5,5.4 0,1.7 -0.5,2.8 -1.6,3.3 -1.1,0.5 -2.5,0.7 -4.4,0.7 H 70 c 0,1.5 0.4,2.9 1,4 0.7,1.2 1.5,2 2.6,2.6 1.1,0.6 2.3,0.9 3.6,0.9 0.9,0 1.7,-0.1 2.4,-0.3 0.7,-0.2 1.4,-0.5 2.1,-0.9 0.7,-0.4 1.3,-0.8 1.9,-1.3 M 70,79.6 h 13.3 c -0.2,-2.3 -0.9,-4 -2,-5.1 -1.2,-1.1 -2.7,-1.7 -4.6,-1.7 -1.8,0 -3.3,0.6 -4.5,1.7 -1.2,1.2 -1.9,2.9 -2.2,5.1 z"
   class="st3" />
				</g>
				<g
   id="g4621">
					<path
   style="fill:#e44143"
   id="path4619"
   d="m 89.2,89.1 c -0.5,0.7 -1.3,1.4 -2.3,2.1 -1,0.7 -2.4,1.2 -3.9,1.7 -1.6,0.4 -3.4,0.7 -5.5,0.7 -4.7,0 -8.3,-1.1 -11,-3.3 -2.6,-2.2 -3.9,-5.2 -3.9,-9 0,-1.8 0.3,-3.4 1,-4.9 0.6,-1.5 1.6,-2.8 2.8,-3.9 1.2,-1.1 2.7,-1.9 4.6,-2.5 1.8,-0.6 3.8,-0.9 6,-0.9 2.9,0 5.3,0.5 7.4,1.5 2,1 3.6,2.3 4.6,3.8 1,1.6 1.5,3.2 1.5,4.8 0,1.5 -0.5,2.5 -1.6,2.9 -1.1,0.4 -2.5,0.7 -4.4,0.7 H 70 c 0,1.4 0.4,2.6 1,3.6 0.7,1 1.5,1.8 2.6,2.4 1.1,0.5 2,1.3 3.3,1.3 0.9,0 2,0.4 2.8,0.2 0.7,-0.2 2.4,-0.1 3.1,-0.5 0.7,-0.4 1.7,-1.4 2.3,-1.8 M 70,79.4 h 13.3 c -0.2,-2.1 -0.9,-3.6 -2,-4.6 -1.2,-1 -2.7,-1.5 -4.6,-1.5 -1.8,0 -3.3,0.5 -4.5,1.6 -1.2,0.9 -1.9,2.4 -2.2,4.5 z"
   class="st3" />
				</g>
			</g>
		</g>
		<g
   id="g4647">
			<g
   id="g4635">
				<g
   id="g4629">
					<path
   style="fill:#e44143"
   id="path4627"
   d="m 90.1,90.2 c -0.5,0.8 -1.3,1.6 -2.3,2.3 -1,0.7 -2.4,1.4 -3.9,1.9 -1.6,0.5 -3.4,0.7 -5.5,0.7 -4.7,0 -8.3,-1.2 -11,-3.7 -2.6,-2.5 -3.9,-5.8 -3.9,-10 0,-2 0.3,-3.8 1,-5.5 0.6,-1.7 1.6,-3.1 2.8,-4.4 1.2,-1.2 2.7,-2.1 4.6,-2.8 1.8,-0.6 3.8,-1 6,-1 2.9,0 5.3,0.6 7.4,1.7 2,1.1 3.6,2.5 4.6,4.3 1,1.8 1.5,3.5 1.5,5.4 0,1.7 -0.5,2.8 -1.6,3.3 -1.1,0.5 -2.5,0.7 -4.4,0.7 H 71 c 0,1.5 0.4,2.9 1,4 0.7,1.2 1.5,2 2.6,2.6 1.1,0.6 2.3,0.9 3.6,0.9 0.9,0 1.7,-0.1 2.4,-0.3 0.7,-0.2 1.4,-0.5 2.1,-0.9 0.7,-0.4 1.3,-0.8 1.9,-1.3 M 71,79.3 h 13.3 c -0.2,-2.3 -0.9,-4 -2,-5.1 -1.2,-1.1 -2.7,-1.7 -4.6,-1.7 -1.8,0 -3.3,0.6 -4.5,1.7 -1.2,1.2 -1.9,2.9 -2.2,5.1 z"
   class="st3" />
				</g>
				<g
   id="g4633">
					<path
   style="fill:#e44143"
   id="path4631"
   d="m 87.8,91.4 c -1,0.7 -2.4,1.3 -3.9,1.8 -1.6,0.5 -3.4,0.7 -5.5,0.7 -4.7,0 -8.3,-1.2 -11,-3.6 -2.6,-2.4 -3.9,-5.7 -3.9,-9.8 0,-1.9 0.3,-3.8 1,-5.4 0.6,-1.7 1.6,-3.1 2.8,-4.3 1.2,-1.2 2.7,-2.1 4.6,-2.7 1.8,-0.6 3.8,-1 6,-1 2.9,0 5.3,0.5 7.4,1.6 2,1.1 3.6,2.5 4.6,4.2 1,1.7 1.5,3.5 1.5,5.3 0,1.7 -0.5,2.7 -1.6,3.2 -1.1,0.5 -2.5,0.7 -4.4,0.7 H 71 c 0,1.5 0.4,2.8 1,4 0.7,1.1 1.5,2 2.6,2.6 1.1,0.6 2.3,0.9 3.6,0.9 0.9,0 1.7,-0.1 2.4,-0.3 0.7,-0.2 1.4,-0.5 2.1,-0.9 M 71,78.4 h 13.3 c -0.2,-2.3 -0.9,-3.9 -2,-5.1 -1.2,-1.1 -2.7,-1.7 -4.6,-1.7 -1.8,0 -3.3,0.6 -4.5,1.7 -1.2,1.2 -1.9,2.9 -2.2,5.1 z"
   class="st3" />
				</g>
			</g>
			<g
   id="g4645">
				<g
   id="g4639">
					<path
   style="fill:#e44143"
   id="path4637"
   d="m 90.1,89.1 c 0,0.6 0.1,0.8 -0.5,1.6 -0.5,0.8 -1.3,1.6 -2.3,2.3 -1,0.7 -2.4,1.4 -3.9,1.9 -1.6,0.5 -3.4,0.7 -5.5,0.7 -4.7,0 -8.3,-1.2 -11,-3.7 -2.6,-2.5 -3.9,-5.8 -3.9,-10 0,-2 0.3,-3.8 1,-5.5 0.6,-1.7 1.6,-3.1 2.8,-4.4 1.2,-1.2 2.7,-2.1 4.6,-2.8 1.8,-0.6 3.8,-1 6,-1 2.9,0 5.3,0.6 7.4,1.7 2,1.1 3.6,2.5 4.6,4.3 1,1.8 1.5,3.5 1.5,5.4 0,1.7 -0.5,2.8 -1.6,3.3 -1.1,0.5 -2.5,0.7 -4.4,0.7 H 70.5 c 0,1.5 0.4,2.9 1,4 0.7,1.2 1.5,2 2.6,2.6 1.1,0.6 2.3,0.9 3.6,0.9 0.9,0 1.7,-0.1 2.4,-0.3 0.7,-0.2 1.4,-0.5 2.1,-0.9 0.7,-0.4 1.3,-0.8 1.9,-1.3 0.6,-0.5 0.4,-0.3 1.3,-1.1 M 70.5,79.8 h 13.3 c -0.2,-2.3 -0.9,-4 -2,-5.1 -1.2,-1.1 -2.7,-1.7 -4.6,-1.7 -1.8,0 -3.3,0.6 -4.5,1.7 -1.2,1.2 -1.9,2.9 -2.2,5.1 z"
   class="st3" />
				</g>
				<g
   id="g4643">
					<path
   style="fill:#e44143"
   id="path4641"
   d="m 89.9,89 c -0.5,0.7 -1.3,1.4 -2.3,2.1 -1,0.7 -2.4,1.2 -3.9,1.7 -1.6,0.4 -3.4,0.7 -5.5,0.7 -4.7,0 -8.3,-1.1 -11,-3.3 -2.6,-2.2 -3.9,-5.2 -3.9,-9 0,-1.8 0.3,-3.4 1,-4.9 0.6,-1.5 1.6,-2.8 2.8,-3.9 1.2,-1.1 2.7,-1.9 4.6,-2.5 1.8,-0.6 3.8,-0.9 6,-0.9 2.9,0 5.3,0.5 7.4,1.5 2,1 3.6,2.3 4.6,3.8 1,1.6 1.5,3.2 1.5,4.8 0,1.5 -0.5,2.5 -1.6,2.9 -1.1,0.4 -2.5,0.7 -4.4,0.7 H 70.8 c 0,1.4 0.4,2.6 1,3.6 0.7,1 1.5,1.8 2.6,2.4 1.1,0.5 2.3,0.8 3.6,0.8 0.9,0 1.7,-0.1 2.4,-0.3 0.7,-0.2 1.4,-0.4 2.1,-0.8 0.7,-0.4 1.3,-0.7 1.9,-1.2 M 70.8,79.3 H 84 c -0.2,-2.1 -0.9,-3.6 -2,-4.6 -1.2,-1 -2.7,-1.5 -4.6,-1.5 -1.8,0 -3.3,0.5 -4.5,1.6 -1.1,0.9 -1.9,2.5 -2.1,4.5 z"
   class="st3" />
				</g>
			</g>
		</g>
	</g>
</g>
</svg>